<define-tag pagetitle>DLA-3011-1 vim</define-tag>
<define-tag report_date>2022-5-16</define-tag>
<define-tag secrefs>CVE-2022-0261 CVE-2022-0351 CVE-2022-0413 CVE-2022-0443 CVE-2022-0572 CVE-2022-1154 CVE-2022-1616 CVE-2022-1619 CVE-2022-1621</define-tag>
<define-tag packages>vim</define-tag>
<define-tag isvulnerable>yes</define-tag>
<define-tag fixed>yes</define-tag>
<define-tag fixed-section>no</define-tag>

#use wml::debian::security

