<define-tag pagetitle>DLA-3218-1 libpgjava</define-tag>
<define-tag report_date>2022-12-03</define-tag>
<define-tag secrefs>CVE-2022-41946</define-tag>
<define-tag packages>libpgjava</define-tag>
<define-tag isvulnerable>yes</define-tag>
<define-tag fixed>yes</define-tag>
<define-tag fixed-section>no</define-tag>

#use wml::debian::security

