<define-tag pagetitle>DLA-2876-1 vim</define-tag>
<define-tag report_date>2022-01-10</define-tag>
<define-tag secrefs>CVE-2017-17087 CVE-2019-20807 CVE-2021-3778 CVE-2021-3796</define-tag>
<define-tag packages>vim</define-tag>
<define-tag isvulnerable>yes</define-tag>
<define-tag fixed>yes</define-tag>
<define-tag fixed-section>no</define-tag>

#use wml::debian::security

