<define-tag pagetitle>DLA-3058-1 libsndfile</define-tag>
<define-tag report_date>2022-6-28</define-tag>
<define-tag secrefs>CVE-2017-12562 CVE-2021-4156</define-tag>
<define-tag packages>libsndfile</define-tag>
<define-tag isvulnerable>yes</define-tag>
<define-tag fixed>yes</define-tag>
<define-tag fixed-section>no</define-tag>

#use wml::debian::security

