<define-tag pagetitle>DSA-4890-1 ruby-kramdown</define-tag>
<define-tag report_date>2021-4-12</define-tag>
<define-tag secrefs>CVE-2021-28834 Bug#985569</define-tag>
<define-tag packages>ruby-kramdown</define-tag>
<define-tag isvulnerable>yes</define-tag>
<define-tag fixed>yes</define-tag>
<define-tag fixed-section>no</define-tag>

#use wml::debian::security



</dl>
