<define-tag pagetitle>DSA-4983-1 neutron</define-tag>
<define-tag report_date>2021-10-10</define-tag>
<define-tag secrefs>CVE-2021-40085 Bug#993398</define-tag>
<define-tag packages>neutron</define-tag>
<define-tag isvulnerable>yes</define-tag>
<define-tag fixed>yes</define-tag>
<define-tag fixed-section>no</define-tag>

#use wml::debian::security



</dl>
