<define-tag pagetitle>DSA-4835-1 tomcat9</define-tag>
<define-tag report_date>2021-1-22</define-tag>
<define-tag secrefs>CVE-2020-13943 CVE-2020-17527</define-tag>
<define-tag packages>tomcat9</define-tag>
<define-tag isvulnerable>yes</define-tag>
<define-tag fixed>yes</define-tag>
<define-tag fixed-section>no</define-tag>

#use wml::debian::security



</dl>
