<define-tag pagetitle>DSA-4885-1 netty</define-tag>
<define-tag report_date>2021-4-05</define-tag>
<define-tag secrefs>CVE-2019-20444 CVE-2019-20445 CVE-2020-7238 CVE-2020-11612 CVE-2021-21290 CVE-2021-21295 CVE-2021-21409</define-tag>
<define-tag packages>netty</define-tag>
<define-tag isvulnerable>yes</define-tag>
<define-tag fixed>yes</define-tag>
<define-tag fixed-section>no</define-tag>

#use wml::debian::security



</dl>
