<define-tag pagetitle>DSA-4791-1 pacemaker</define-tag>
<define-tag report_date>2020-11-13</define-tag>
<define-tag secrefs>CVE-2020-25654 Bug#973254</define-tag>
<define-tag packages>pacemaker</define-tag>
<define-tag isvulnerable>yes</define-tag>
<define-tag fixed>yes</define-tag>
<define-tag fixed-section>no</define-tag>

#use wml::debian::security



</dl>
