<define-tag pagetitle>DSA-4777-1 freetype</define-tag>
<define-tag report_date>2020-10-21</define-tag>
<define-tag secrefs>CVE-2020-15999 Bug#972586</define-tag>
<define-tag packages>freetype</define-tag>
<define-tag isvulnerable>yes</define-tag>
<define-tag fixed>yes</define-tag>
<define-tag fixed-section>no</define-tag>

#use wml::debian::security



</dl>
