<define-tag pagetitle>DLA-2514-1 flac</define-tag>
<define-tag report_date>2021-01-04</define-tag>
<define-tag secrefs>CVE-2017-6888 CVE-2020-0499 Bug#897015</define-tag>
<define-tag packages>flac</define-tag>
<define-tag isvulnerable>yes</define-tag>
<define-tag fixed>yes</define-tag>
<define-tag fixed-section>no</define-tag>

#use wml::debian::security

