<define-tag pagetitle>DLA-2770-1 weechat</define-tag>
<define-tag report_date>2021-09-30</define-tag>
<define-tag secrefs>CVE-2020-8955 CVE-2020-9759 CVE-2020-9760 CVE-2021-40516 Bug#951289 Bug#993803</define-tag>
<define-tag packages>weechat</define-tag>
<define-tag isvulnerable>yes</define-tag>
<define-tag fixed>yes</define-tag>
<define-tag fixed-section>no</define-tag>

#use wml::debian::security

