<define-tag pagetitle>DLA-2663-1 libimage-exiftool-perl</define-tag>
<define-tag report_date>2021-05-16</define-tag>
<define-tag secrefs>CVE-2021-22204 Bug#987505</define-tag>
<define-tag packages>libimage-exiftool-perl</define-tag>
<define-tag isvulnerable>yes</define-tag>
<define-tag fixed>yes</define-tag>
<define-tag fixed-section>no</define-tag>

#use wml::debian::security

