<define-tag pagetitle>DLA-2694-1 tiff</define-tag>
<define-tag report_date>2021-6-27</define-tag>
<define-tag secrefs>CVE-2020-35523 CVE-2020-35524</define-tag>
<define-tag packages>tiff</define-tag>
<define-tag isvulnerable>yes</define-tag>
<define-tag fixed>yes</define-tag>
<define-tag fixed-section>no</define-tag>

#use wml::debian::security

