<define-tag pagetitle>DLA-2623-1 qemu</define-tag>
<define-tag report_date>2021-4-10</define-tag>
<define-tag secrefs>CVE-2020-17380 CVE-2021-3392 CVE-2021-3409 CVE-2021-3416 CVE-2021-20203 CVE-2021-20255 CVE-2021-20257 Bug#984450 Bug#984451 Bug#984452 Bug#984448 Bug#984449 Bug#970937</define-tag>
<define-tag packages>qemu</define-tag>
<define-tag isvulnerable>yes</define-tag>
<define-tag fixed>yes</define-tag>
<define-tag fixed-section>no</define-tag>

#use wml::debian::security

