<define-tag pagetitle>DSA-5452-1 gpac</define-tag>
<define-tag report_date>2023-7-14</define-tag>
<define-tag secrefs>CVE-2023-0760 CVE-2023-3012 CVE-2023-3291</define-tag>
<define-tag packages>gpac</define-tag>
<define-tag isvulnerable>yes</define-tag>
<define-tag fixed>yes</define-tag>
<define-tag fixed-section>no</define-tag>

#use wml::debian::security



</dl>
