<define-tag pagetitle>DSA-5406-1 texlive-bin</define-tag>
<define-tag report_date>2023-5-20</define-tag>
<define-tag secrefs>CVE-2023-32700</define-tag>
<define-tag packages>texlive-bin</define-tag>
<define-tag isvulnerable>yes</define-tag>
<define-tag fixed>yes</define-tag>
<define-tag fixed-section>no</define-tag>

#use wml::debian::security



</dl>
