<define-tag pagetitle>DSA-5507-1 jetty9</define-tag>
<define-tag report_date>2023-9-28</define-tag>
<define-tag secrefs>CVE-2023-26048 CVE-2023-26049 CVE-2023-36479 CVE-2023-40167 CVE-2023-41900</define-tag>
<define-tag packages>jetty9</define-tag>
<define-tag isvulnerable>yes</define-tag>
<define-tag fixed>yes</define-tag>
<define-tag fixed-section>no</define-tag>

#use wml::debian::security



</dl>
