<define-tag pagetitle>DSA-5484-1 librsvg</define-tag>
<define-tag report_date>2023-8-27</define-tag>
<define-tag secrefs>CVE-2023-38633 Bug#1041810</define-tag>
<define-tag packages>librsvg</define-tag>
<define-tag isvulnerable>yes</define-tag>
<define-tag fixed>yes</define-tag>
<define-tag fixed-section>no</define-tag>

#use wml::debian::security



</dl>
