<define-tag pagetitle>DSA-5360-1 emacs</define-tag>
<define-tag report_date>2023-2-23</define-tag>
<define-tag secrefs>CVE-2022-48337 CVE-2022-48338 CVE-2022-48339</define-tag>
<define-tag packages>emacs</define-tag>
<define-tag isvulnerable>yes</define-tag>
<define-tag fixed>yes</define-tag>
<define-tag fixed-section>no</define-tag>

#use wml::debian::security



</dl>
