<define-tag pagetitle>DSA-5327-1 swift</define-tag>
<define-tag report_date>2023-1-24</define-tag>
<define-tag secrefs>CVE-2022-47950 Bug#1029200</define-tag>
<define-tag packages>swift</define-tag>
<define-tag isvulnerable>yes</define-tag>
<define-tag fixed>yes</define-tag>
<define-tag fixed-section>no</define-tag>

#use wml::debian::security



</dl>
