<define-tag pagetitle>DSA-5426-1 owslib</define-tag>
<define-tag report_date>2023-6-14</define-tag>
<define-tag secrefs>CVE-2023-27476 Bug#1034182</define-tag>
<define-tag packages>owslib</define-tag>
<define-tag isvulnerable>yes</define-tag>
<define-tag fixed>yes</define-tag>
<define-tag fixed-section>no</define-tag>

#use wml::debian::security



</dl>
