<define-tag pagetitle>DLA-0002-1 chkrootkit</define-tag>
<define-tag report_date>2014-6-4</define-tag>
<define-tag secrefs>CVE-2014-0476</define-tag>
<define-tag packages>chkrootkit</define-tag>
<define-tag isvulnerable>yes</define-tag>
<define-tag fixed>yes</define-tag>
<define-tag fixed-section>no</define-tag>

#use wml::debian::security

