<define-tag pagetitle>DLA-850-1 vim</define-tag>
<define-tag report_date>2017-3-10</define-tag>
<define-tag secrefs>CVE-2017-6349 CVE-2017-6350 Bug##856266</define-tag>
<define-tag packages>vim</define-tag>
<define-tag isvulnerable>yes</define-tag>
<define-tag fixed>yes</define-tag>
<define-tag fixed-section>no</define-tag>

#use wml::debian::security

