<define-tag pagetitle>DLA-998-1 c-ares</define-tag>
<define-tag report_date>2017-6-22</define-tag>
<define-tag secrefs>CVE-2017-1000381</define-tag>
<define-tag packages>c-ares</define-tag>
<define-tag isvulnerable>yes</define-tag>
<define-tag fixed>yes</define-tag>
<define-tag fixed-section>no</define-tag>

#use wml::debian::security

