<define-tag pagetitle>DLA-1177-1 poppler</define-tag>
<define-tag report_date>2017-11-18</define-tag>
<define-tag secrefs>CVE-2017-14975 CVE-2017-14976 CVE-2017-14977 CVE-2017-15565 Bug#879066 Bug#877952 Bug#877954 Bug#877957</define-tag>
<define-tag packages>poppler</define-tag>
<define-tag isvulnerable>yes</define-tag>
<define-tag fixed>yes</define-tag>
<define-tag fixed-section>no</define-tag>

#use wml::debian::security

