<define-tag pagetitle>DLA-863-1 deluge</define-tag>
<define-tag report_date>2017-3-19</define-tag>
<define-tag secrefs>CVE-2017-7178 Bug##857903</define-tag>
<define-tag packages>deluge</define-tag>
<define-tag isvulnerable>yes</define-tag>
<define-tag fixed>yes</define-tag>
<define-tag fixed-section>no</define-tag>

#use wml::debian::security

