<define-tag pagetitle>DLA-886-1 tzdata</define-tag>
<define-tag report_date>2017-4-7</define-tag>
<define-tag packages>tzdata</define-tag>
<define-tag isvulnerable>yes</define-tag>
<define-tag fixed>yes</define-tag>
<define-tag fixed-section>no</define-tag>

#use wml::debian::security

