<define-tag pagetitle>DLA-956-1 libsndfile</define-tag>
<define-tag report_date>2017-5-28</define-tag>
<define-tag secrefs>CVE-2017-8361 CVE-2017-8362 CVE-2017-8363 CVE-2017-8365</define-tag>
<define-tag packages>libsndfile</define-tag>
<define-tag isvulnerable>yes</define-tag>
<define-tag fixed>yes</define-tag>
<define-tag fixed-section>no</define-tag>

#use wml::debian::security

