<define-tag pagetitle>DLA-1165-1 libpam4j</define-tag>
<define-tag report_date>2017-11-7</define-tag>
<define-tag secrefs>CVE-2017-12197 Bug#879001</define-tag>
<define-tag packages>libpam4j</define-tag>
<define-tag isvulnerable>yes</define-tag>
<define-tag fixed>yes</define-tag>
<define-tag fixed-section>no</define-tag>

#use wml::debian::security

