<define-tag pagetitle>DLA-3590-1 python-reportlab</define-tag>
<define-tag report_date>2023-09-29</define-tag>
<define-tag secrefs>CVE-2019-19450 CVE-2020-28463</define-tag>
<define-tag packages>python-reportlab</define-tag>
<define-tag isvulnerable>yes</define-tag>
<define-tag fixed>yes</define-tag>
<define-tag fixed-section>no</define-tag>

#use wml::debian::security

