<define-tag pagetitle>DLA-3586-1 ncurses</define-tag>
<define-tag report_date>2023-09-28</define-tag>
<define-tag secrefs>CVE-2020-19189</define-tag>
<define-tag packages>ncurses</define-tag>
<define-tag isvulnerable>yes</define-tag>
<define-tag fixed>yes</define-tag>
<define-tag fixed-section>no</define-tag>

#use wml::debian::security

