<define-tag pagetitle>DLA-3495-1 php-dompdf</define-tag>
<define-tag report_date>2023-07-13</define-tag>
<define-tag secrefs>CVE-2021-3838 CVE-2022-2400 Bug##1015874</define-tag>
<define-tag packages>php-dompdf</define-tag>
<define-tag isvulnerable>yes</define-tag>
<define-tag fixed>yes</define-tag>
<define-tag fixed-section>no</define-tag>

#use wml::debian::security

