<define-tag pagetitle>DLA-3569-1 thunderbird</define-tag>
<define-tag report_date>2023-09-17</define-tag>
<define-tag secrefs>CVE-2023-4863</define-tag>
<define-tag packages>thunderbird</define-tag>
<define-tag isvulnerable>yes</define-tag>
<define-tag fixed>yes</define-tag>
<define-tag fixed-section>no</define-tag>

#use wml::debian::security

