<define-tag pagetitle>DLA-3578-1 lldpd</define-tag>
<define-tag report_date>2023-9-22</define-tag>
<define-tag secrefs>CVE-2023-41910</define-tag>
<define-tag packages>lldpd</define-tag>
<define-tag isvulnerable>yes</define-tag>
<define-tag fixed>yes</define-tag>
<define-tag fixed-section>no</define-tag>

#use wml::debian::security

