<define-tag pagetitle>DLA-3542-1 unrar-nonfree</define-tag>
<define-tag report_date>2023-8-26</define-tag>
<define-tag secrefs>CVE-2023-40477</define-tag>
<define-tag packages>unrar-nonfree</define-tag>
<define-tag isvulnerable>yes</define-tag>
<define-tag fixed>yes</define-tag>
<define-tag fixed-section>no</define-tag>

#use wml::debian::security

