<define-tag pagetitle>DLA-3596-1 firmware-nonfree</define-tag>
<define-tag report_date>2023-09-30</define-tag>
<define-tag secrefs>CVE-2022-27635 CVE-2022-36351 CVE-2022-38076 CVE-2022-40964 CVE-2022-46329 Bug#1051892</define-tag>
<define-tag packages>firmware-nonfree</define-tag>
<define-tag isvulnerable>yes</define-tag>
<define-tag fixed>yes</define-tag>
<define-tag fixed-section>no</define-tag>

#use wml::debian::security

