<define-tag pagetitle>DLA-3409-1 libapache2-mod-auth-openidc</define-tag>
<define-tag report_date>2023-04-30</define-tag>
<define-tag secrefs>CVE-2019-20479 CVE-2021-32785 CVE-2021-32786 CVE-2021-32791 CVE-2021-32792 CVE-2023-28625 Bug#991580 Bug#991581 Bug#991582 Bug#991583 Bug#1033916</define-tag>
<define-tag packages>libapache2-mod-auth-openidc</define-tag>
<define-tag isvulnerable>yes</define-tag>
<define-tag fixed>yes</define-tag>
<define-tag fixed-section>no</define-tag>

#use wml::debian::security

