<define-tag pagetitle>DLA-3426-2 netatalk</define-tag>
<define-tag report_date>2023-6-01</define-tag>
<define-tag secrefs>CVE-2022-23121 Bug#1036740</define-tag>
<define-tag packages>netatalk</define-tag>
<define-tag isvulnerable>yes</define-tag>
<define-tag fixed>yes</define-tag>
<define-tag fixed-section>no</define-tag>

#use wml::debian::security

