<define-tag pagetitle>DLA-3442-1 nbconvert</define-tag>
<define-tag report_date>2023-06-03</define-tag>
<define-tag secrefs>CVE-2021-32862</define-tag>
<define-tag packages>nbconvert</define-tag>
<define-tag isvulnerable>yes</define-tag>
<define-tag fixed>yes</define-tag>
<define-tag fixed-section>no</define-tag>

#use wml::debian::security

