<define-tag pagetitle>DLA-3327-1 nss</define-tag>
<define-tag report_date>2023-2-20</define-tag>
<define-tag secrefs>CVE-2020-6829 CVE-2020-12400 CVE-2020-12401 CVE-2020-12403 CVE-2023-0767</define-tag>
<define-tag packages>nss</define-tag>
<define-tag isvulnerable>yes</define-tag>
<define-tag fixed>yes</define-tag>
<define-tag fixed-section>no</define-tag>

#use wml::debian::security

