<define-tag pagetitle>DLA-2432-1 jupyter-notebook</define-tag>
<define-tag report_date>2020-11-19</define-tag>
<define-tag secrefs>CVE-2018-8768 CVE-2018-19351 CVE-2018-21030 Bug#893436 Bug#917409</define-tag>
<define-tag packages>jupyter-notebook</define-tag>
<define-tag isvulnerable>yes</define-tag>
<define-tag fixed>yes</define-tag>
<define-tag fixed-section>no</define-tag>

#use wml::debian::security

