<define-tag pagetitle>DLA-2057-1 pillow</define-tag>
<define-tag report_date>2020-01-06</define-tag>
<define-tag secrefs>CVE-2019-19911 CVE-2020-5312 CVE-2020-5313</define-tag>
<define-tag packages>pillow</define-tag>
<define-tag isvulnerable>yes</define-tag>
<define-tag fixed>yes</define-tag>
<define-tag fixed-section>no</define-tag>

#use wml::debian::security
