<define-tag pagetitle>DLA-2434-1 gdm3</define-tag>
<define-tag report_date>2020-11-05</define-tag>
<define-tag secrefs>CVE-2020-16125</define-tag>
<define-tag packages>gdm3</define-tag>
<define-tag isvulnerable>yes</define-tag>
<define-tag fixed>yes</define-tag>
<define-tag fixed-section>no</define-tag>

#use wml::debian::security
