<define-tag pagetitle>DLA-1446-1 intel-microcode</define-tag>
<define-tag report_date>2018-7-27</define-tag>
<define-tag secrefs>CVE-2018-3639 CVE-2018-3640</define-tag>
<define-tag packages>intel-microcode</define-tag>
<define-tag isvulnerable>yes</define-tag>
<define-tag fixed>yes</define-tag>
<define-tag fixed-section>no</define-tag>

#use wml::debian::security

