<define-tag pagetitle>DLA-1448-1 policykit-1</define-tag>
<define-tag report_date>2018-7-28</define-tag>
<define-tag secrefs>CVE-2018-1116 Bug##903563</define-tag>
<define-tag packages>policykit-1</define-tag>
<define-tag isvulnerable>yes</define-tag>
<define-tag fixed>yes</define-tag>
<define-tag fixed-section>no</define-tag>

#use wml::debian::security

