<define-tag pagetitle>DSA-4403-1 php7.0</define-tag>
<define-tag report_date>2019-3-08</define-tag>
<define-tag secrefs>CVE-2019-9637 CVE-2019-9638 CVE-2019-9639 CVE-2019-9640 CVE-2019-9641 CVE-2019-9675</define-tag>
<define-tag packages>php7.0</define-tag>
<define-tag isvulnerable>yes</define-tag>
<define-tag fixed>yes</define-tag>
<define-tag fixed-section>no</define-tag>

#use wml::debian::security



</dl>
