<define-tag pagetitle>DSA-4578-1 libvpx</define-tag>
<define-tag report_date>2019-11-28</define-tag>
<define-tag secrefs>CVE-2019-9232 CVE-2019-9325 CVE-2019-9433 CVE-2019-9371</define-tag>
<define-tag packages>libvpx</define-tag>
<define-tag isvulnerable>yes</define-tag>
<define-tag fixed>yes</define-tag>
<define-tag fixed-section>no</define-tag>

#use wml::debian::security



</dl>
