<define-tag pagetitle>DSA-5048-1 libreswan</define-tag>
<define-tag report_date>2022-1-15</define-tag>
<define-tag secrefs>CVE-2022-23094</define-tag>
<define-tag packages>libreswan</define-tag>
<define-tag isvulnerable>yes</define-tag>
<define-tag fixed>yes</define-tag>
<define-tag fixed-section>no</define-tag>

#use wml::debian::security



</dl>
