<define-tag pagetitle>DSA-5071-1 samba</define-tag>
<define-tag report_date>2022-2-11</define-tag>
<define-tag secrefs>CVE-2021-44142 CVE-2022-0336 Bug#1001068 Bug#1004693 Bug#1004694</define-tag>
<define-tag packages>samba</define-tag>
<define-tag isvulnerable>yes</define-tag>
<define-tag fixed>yes</define-tag>
<define-tag fixed-section>no</define-tag>

#use wml::debian::security



</dl>
