<define-tag pagetitle>DSA-5123-1 xz-utils</define-tag>
<define-tag report_date>2022-4-18</define-tag>
<define-tag secrefs>CVE-2022-1271 Bug#1009167</define-tag>
<define-tag packages>xz-utils</define-tag>
<define-tag isvulnerable>yes</define-tag>
<define-tag fixed>yes</define-tag>
<define-tag fixed-section>no</define-tag>

#use wml::debian::security



</dl>
