<define-tag pagetitle>DSA-5035-1 apache2</define-tag>
<define-tag report_date>2022-1-04</define-tag>
<define-tag secrefs>CVE-2021-44224 CVE-2021-44790</define-tag>
<define-tag packages>apache2</define-tag>
<define-tag isvulnerable>yes</define-tag>
<define-tag fixed>yes</define-tag>
<define-tag fixed-section>no</define-tag>

#use wml::debian::security



</dl>
