<define-tag pagetitle>DLA-675-1 potrace</define-tag>
<define-tag report_date>2016-10-26</define-tag>
<define-tag secrefs>CVE-2013-7437 CVE-2016-8694 CVE-2016-8695 CVE-2016-8696 CVE-2016-8697 CVE-2016-8698 CVE-2016-8699 CVE-2016-8700 CVE-2016-8701 CVE-2016-8702 CVE-2016-8703 Bug##778646</define-tag>
<define-tag packages>potrace</define-tag>
<define-tag isvulnerable>yes</define-tag>
<define-tag fixed>yes</define-tag>
<define-tag fixed-section>no</define-tag>

#use wml::debian::security

